TestData/Lab1_Square_7kHz.csv

;Scopy version,6fa2c03
;Exported on,Wednesday September 25/09/2019
;Device,M2K
;Nr of samples,3200
;Sample rate,1e+07
;Tool,Oscilloscope
;Additional Information,
Sample,Time(S),CH1(V),CH2(V)
0,-0.00016,-1.52153,-1.44801
1,-0.0001599,-1.51842,-1.44957
2,-0.0001598,-1.51998,-1.44801
3,-0.0001597,-1.51998,-1.45114
4,-0.0001596,-1.52153,-1.44957
5,-0.0001595,-1.51842,-1.44957
6,-0.0001594,-1.51998,-1.45114
7,-0.0001593,-1.51687,-1.44957
8,-0.0001592,-1.52153,-1.44957
9,-0.0001591,-1.51998,-1.44957
10,-0.000159,-1.51998,-1.44957
11,-0.0001589,-1.51998,-1.44801
12,-0.0001588,-1.51842,-1.44957
13,-0.0001587,-1.51842,-1.44957
14,-0.0001586,-1.51842,-1.44957
15,-0.0001585,-1.51998,-1.44801
16,-0.0001584,-1.51842,-1.44801
17,-0.0001583,-1.51687,-1.44801
18,-0.0001582,-1.51687,-1.44957
19,-0.0001581,-1.51687,-1.44644
20,-0.000158,-1.51842,-1.45114
21,-0.0001579,-1.51998,-1.44957
22,-0.0001578,-1.51998,-1.45114
23,-0.0001577,-1.51531,-1.44801
24,-0.0001576,-1.51842,-1.44801
25,-0.0001575,-1.51687,-1.44801
26,-0.0001574,-1.51998,-1.44801
27,-0.0001573,-1.51842,-1.44801
28,-0.0001572,-1.51842,-1.44801
29,-0.0001571,-1.51842,-1.44644
30,-0.000157,-1.51842,-1.44957
31,-0.0001569,-1.51842,-1.44957
32,-0.0001568,-1.51842,-1.44957
33,-0.0001567,-1.51842,-1.44957
34,-0.0001566,-1.51842,-1.44801
35,-0.0001565,-1.51842,-1.44957
36,-0.0001564,-1.51842,-1.44957
37,-0.0001563,-1.51842,-1.44957
38,-0.0001562,-1.51842,-1.44957
39,-0.0001561,-1.51842,-1.44957
40,-0.000156,-1.51842,-1.45114
41,-0.0001559,-1.51842,-1.44957
42,-0.0001558,-1.51842,-1.44957
43,-0.0001557,-1.51687,-1.44957
44,-0.0001556,-1.51998,-1.45114
45,-0.0001555,-1.51998,-1.44801
46,-0.0001554,-1.51687,-1.44957
47,-0.0001553,-1.52153,-1.44957
48,-0.0001552,-1.51842,-1.45271
49,-0.0001551,-1.52153,-1.44957
50,-0.000155,-1.51842,-1.44957
51,-0.0001549,-1.52153,-1.44957
52,-0.0001548,-1.52153,-1.44957
53,-0.0001547,-1.51842,-1.44957
54,-0.0001546,-1.52153,-1.44957
55,-0.0001545,-1.51842,-1.44957
56,-0.0001544,-1.52153,-1.44957
57,-0.0001543,-1.51998,-1.44957
58,-0.0001542,-1.51842,-1.45114
59,-0.0001541,-1.52153,-1.44801
60,-0.000154,-1.51998,-1.44957
61,-0.0001539,-1.51998,-1.44957
62,-0.0001538,-1.51998,-1.44957
63,-0.0001537,-1.52153,-1.44957
64,-0.0001536,-1.51998,-1.45271
65,-0.0001535,-1.51998,-1.45114
66,-0.0001534,-1.51842,-1.45114
67,-0.0001533,-1.52153,-1.45271
68,-0.0001532,-1.51842,-1.44957
69,-0.0001531,-1.52153,-1.44957
70,-0.000153,-1.51842,-1.44957
71,-0.0001529,-1.52153,-1.44957
72,-0.0001528,-1.52153,-1.44957
73,-0.0001527,-1.51998,-1.44957
74,-0.0001526,-1.51998,-1.44957
75,-0.0001525,-1.51998,-1.45114
76,-0.0001524,-1.52153,-1.45114
77,-0.0001523,-1.51998,-1.45114
78,-0.0001522,-1.51998,-1.45114
79,-0.0001521,-1.51998,-1.45271
80,-0.000152,-1.51998,-1.44957
81,-0.0001519,-1.51998,-1.45114
82,-0.0001518,-1.51998,-1.45114
83,-0.0001517,-1.51998,-1.44957
84,-0.0001516,-1.51998,-1.44957
85,-0.0001515,-1.51998,-1.44957
86,-0.0001514,-1.51842,-1.44957
87,-0.0001513,-1.51842,-1.44957
88,-0.0001512,-1.51998,-1.44957
89,-0.0001511,-1.51998,-1.45114
90,-0.000151,-1.51998,-1.44801
91,-0.0001509,-1.51998,-1.45114
92,-0.0001508,-1.51998,-1.44957
93,-0.0001507,-1.51687,-1.44957
94,-0.0001506,-1.51998,-1.45114
95,-0.0001505,-1.51842,-1.44801
96,-0.0001504,-1.51842,-1.44801
97,-0.0001503,-1.51998,-1.44801
98,-0.0001502,-1.51998,-1.44801
99,-0.0001501,-1.51687,-1.44801
100,-0.00015,-1.52153,-1.44801
101,-0.0001499,-1.51842,-1.44801
102,-0.0001498,-1.51998,-1.44801
103,-0.0001497,-1.51998,-1.44801
104,-0.0001496,-1.51842,-1.44957
105,-0.0001495,-1.51998,-1.44957
106,-0.0001494,-1.51687,-1.44801
107,-0.0001493,-1.51842,-1.44801
108,-0.0001492,-1.51998,-1.44801
109,-0.0001491,-1.51998,-1.44801
110,-0.000149,-1.52153,-1.44957
111,-0.0001489,-1.52153,-1.44801
112,-0.0001488,-1.51998,-1.45114
113,-0.0001487,-1.51998,-1.44957
114,-0.0001486,-1.51998,-1.45114
115,-0.0001485,-1.51998,-1.44957
116,-0.0001484,-1.51998,-1.44957
117,-0.0001483,-1.52153,-1.44801
118,-0.0001482,-1.51842,-1.45114
119,-0.0001481,-1.51842,-1.44957
120,-0.000148,-1.51998,-1.45114
121,-0.0001479,-1.51998,-1.44801
122,-0.0001478,-1.51998,-1.45114
123,-0.0001477,-1.52153,-1.45114
124,-0.0001476,-1.52153,-1.44801
125,-0.0001475,-1.51998,-1.45114
126,-0.0001474,-1.51998,-1.44957
127,-0.0001473,-1.52153,-1.44957
128,-0.0001472,-1.51998,-1.44957
129,-0.0001471,-1.51998,-1.44957
130,-0.000147,-1.51998,-1.44957
131,-0.0001469,-1.52153,-1.44957
132,-0.0001468,-1.52153,-1.44957
133,-0.0001467,-1.52153,-1.44957
134,-0.0001466,-1.52153,-1.44957
135,-0.0001465,-1.51998,-1.44957
136,-0.0001464,-1.51998,-1.44957
137,-0.0001463,-1.52153,-1.45114
138,-0.0001462,-1.51842,-1.45114
139,-0.0001461,-1.52153,-1.44957
140,-0.000146,-1.51842,-1.44957
141,-0.0001459,-1.51998,-1.45114
142,-0.0001458,-1.51842,-1.44801
143,-0.0001457,-1.52153,-1.44957
144,-0.0001456,-1.51998,-1.44801
145,-0.0001455,-1.51998,-1.44957
146,-0.0001454,-1.52153,-1.44957
147,-0.0001453,-1.51842,-1.44801
148,-0.0001452,-1.52308,-1.45114
149,-0.0001451,-1.52308,-1.44957
150,-0.000145,-1.52153,-1.45271
151,-0.0001449,-1.52153,-1.45114
152,-0.0001448,-1.52153,-1.44957
153,-0.0001447,-1.51998,-1.44957
154,-0.0001446,-1.51998,-1.45114
155,-0.0001445,-1.51842,-1.44957
156,-0.0001444,-1.52153,-1.44957
157,-0.0001443,-1.51998,-1.45114
158,-0.0001442,-1.52153,-1.44801
159,-0.0001441,-1.51998,-1.44801
160,-0.000144,-1.51842,-1.44801
161,-0.0001439,-1.51998,-1.44801
162,-0.0001438,-1.52308,-1.45114
163,-0.0001437,-1.51998,-1.44957
164,-0.0001436,-1.51998,-1.44957
165,-0.0001435,-1.51998,-1.44957
166,-0.0001434,-1.51998,-1.44957
167,-0.0001433,-1.51998,-1.44957
168,-0.0001432,-1.51998,-1.45114
169,-0.0001431,-1.52153,-1.44957
170,-0.000143,-1.51842,-1.44801
171,-0.0001429,-1.51998,-1.44801
172,-0.0001428,-1.51065,-1.44644
173,-0.0001427,-1.66762,-1.46524
174,-0.0001426,0.458499,-1.28511
175,-0.0001425,1.40033,-1.28824
176,-0.0001424,1.40189,-1.32897
177,-0.0001423,1.41121,-1.35873
178,-0.0001422,1.41432,-1.13161
179,-0.0001421,1.42054,-0.890397
180,-0.000142,1.42209,-0.893529
181,-0.0001419,1.42209,-0.855938
182,-0.0001418,1.42365,-0.821479
183,-0.0001417,1.42365,-0.801117
184,-0.0001416,1.42365,-0.782321
185,-0.0001415,1.42209,-0.763525
186,-0.0001414,1.4252,-0.750994
187,-0.0001413,1.42365,-0.735331
188,-0.0001412,1.42831,-0.721234
189,-0.0001411,1.42365,-0.708704
190,-0.000141,1.42831,-0.694607
191,-0.0001409,1.42831,-0.678944
192,-0.0001408,1.42831,-0.664847
193,-0.0001407,1.42986,-0.649183
194,-0.0001406,1.42986,-0.636653
195,-0.0001405,1.42986,-0.619423
196,-0.0001404,1.43142,-0.605326
197,-0.0001403,1.42986,-0.588097
198,-0.0001402,1.42831,-0.575566
199,-0.0001401,1.43142,-0.558337
200,-0.00014,1.42831,-0.545806
201,-0.0001399,1.42831,-0.530143
202,-0.0001398,1.42676,-0.51448
203,-0.0001397,1.4252,-0.498817
204,-0.0001396,1.42676,-0.483153
205,-0.0001395,1.4252,-0.469057
206,-0.0001394,1.4252,-0.451827
207,-0.0001393,1.42676,-0.439296
208,-0.0001392,1.42676,-0.423633
209,-0.0001391,1.42831,-0.40797
210,-0.000139,1.42676,-0.392307
211,-0.0001389,1.42831,-0.376644
212,-0.0001388,1.42831,-0.36098
213,-0.0001387,1.42831,-0.345317
214,-0.0001386,1.42986,-0.329654
215,-0.0001385,1.42986,-0.313991
216,-0.0001384,1.43142,-0.298328
217,-0.0001383,1.43142,-0.282664
218,-0.0001382,1.43297,-0.267001
219,-0.0001381,1.43297,-0.252904
220,-0.000138,1.43453,-0.237241
221,-0.0001379,1.43453,-0.221578
222,-0.0001378,1.43608,-0.205915
223,-0.0001377,1.43297,-0.190251
224,-0.0001376,1.43453,-0.174588
225,-0.0001375,1.43608,-0.160491
226,-0.0001374,1.44074,-0.144828
227,-0.0001373,1.43608,-0.130731
228,-0.0001372,1.43919,-0.113502
229,-0.0001371,1.4423,-0.0978385
230,-0.000137,1.43763,-0.0837416
231,-0.0001369,1.44074,-0.0680784
232,-0.0001368,1.4423,-0.0508489
233,-0.0001367,1.44541,-0.0383184
234,-0.0001366,1.44074,-0.0195225
235,-0.0001365,1.44541,-0.00699194
236,-0.0001364,1.44541,0.00867127
237,-0.0001363,1.44541,0.0243345
238,-0.0001362,1.44696,0.0399977
239,-0.0001361,1.45007,0.0556609
240,-0.000136,1.45162,0.0681915
241,-0.0001359,1.45007,0.085421
242,-0.0001358,1.45007,0.101084
243,-0.0001357,1.45162,0.115181
244,-0.0001356,1.45162,0.130844
245,-0.0001355,1.45473,0.146508
246,-0.0001354,1.45628,0.162171
247,-0.0001353,1.45318,0.174701
248,-0.0001352,1.45784,0.191931
249,-0.0001351,1.45784,0.207594
250,-0.000135,1.45939,0.221691
251,-0.0001349,1.46095,0.237354
252,-0.0001348,1.45939,0.251451
253,-0.0001347,1.46095,0.267114
254,-0.0001346,1.4625,0.282777
255,-0.0001345,1.4625,0.296874
256,-0.0001344,1.46406,0.312537
257,-0.0001343,1.46561,0.326634
258,-0.0001342,1.46561,0.342298
259,-0.0001341,1.46716,0.357961
260,-0.000134,1.46716,0.372058
261,-0.0001339,1.46716,0.387721
262,-0.0001338,1.47027,0.401818
263,-0.0001337,1.47183,0.414348
264,-0.0001336,1.47183,0.431578
265,-0.0001335,1.47338,0.447241
266,-0.0001334,1.47494,0.462904
267,-0.0001333,1.47649,0.475435
268,-0.0001332,1.4796,0.491098
269,-0.0001331,1.47804,0.506761
270,-0.000133,1.47804,0.520858
271,-0.0001329,1.48115,0.536521
272,-0.0001328,1.48115,0.549052
273,-0.0001327,1.48271,0.566281
274,-0.0001326,1.48271,0.578812
275,-0.0001325,1.48426,0.594475
276,-0.0001324,1.48581,0.608572
277,-0.0001323,1.48892,0.624235
278,-0.0001322,1.48892,0.636766
279,-0.0001321,1.48892,0.652429
280,-0.000132,1.49048,0.668092
281,-0.0001319,1.49203,0.683756
282,-0.0001318,1.49514,0.697852
283,-0.0001317,1.49514,0.710383
284,-0.0001316,1.49825,0.727612
285,-0.0001315,1.4998,0.740143
286,-0.0001314,1.50136,0.755806
287,-0.0001313,1.50136,0.771469
288,-0.0001312,1.50446,0.785566
289,-0.0001311,1.50602,0.799663
290,-0.000131,1.50602,0.815327
291,-0.0001309,1.50913,0.83099
292,-0.0001308,1.50913,0.845087
293,-0.0001307,1.51068,0.86075
294,-0.0001306,1.51379,0.874847
295,-0.0001305,1.51379,0.89051
296,-0.0001304,1.51379,0.90304
297,-0.0001303,1.51845,0.918704
298,-0.0001302,1.51845,0.934367
299,-0.0001301,1.52001,0.948464
300,-0.00013,1.51845,0.964127
301,-0.0001299,1.52311,0.97979
302,-0.0001298,1.52622,0.995453
303,-0.0001297,1.52467,1.00798
304,-0.0001296,1.52467,1.02521
305,-0.0001295,1.52467,1.04401
306,-0.0001294,1.52467,1.05967
307,-0.0001293,1.52467,1.07534
308,-0.0001292,1.52778,1.091
309,-0.0001291,1.52778,1.10666
310,-0.000129,1.52622,1.12233
311,-0.0001289,1.52933,1.13799
312,-0.0001288,1.52622,1.15678
313,-0.0001287,1.52622,1.17088
314,-0.0001286,1.52933,1.18028
315,-0.0001285,1.52622,1.18811
316,-0.0001284,1.52622,1.19438
317,-0.0001283,1.52622,1.19908
318,-0.0001282,1.52778,1.19751
319,-0.0001281,1.52778,1.20064
320,-0.000128,1.52778,1.20221
321,-0.0001279,1.52778,1.20691
322,-0.0001278,1.52467,1.21317
323,-0.0001277,1.52622,1.21944
324,-0.0001276,1.52622,1.22727
325,-0.0001275,1.52778,1.23667
326,-0.0001274,1.52622,1.24606
327,-0.0001273,1.52622,1.2539
328,-0.0001272,1.52778,1.26486
329,-0.0001271,1.52622,1.27269
330,-0.000127,1.52778,1.28522
331,-0.0001269,1.52778,1.29149
332,-0.0001268,1.52778,1.30245
333,-0.0001267,1.52933,1.31342
334,-0.0001266,1.52467,1.32125
335,-0.0001265,1.52778,1.33378
336,-0.0001264,1.52933,1.34318
337,-0.0001263,1.52778,1.35414
338,-0.0001262,1.52467,1.36197
339,-0.0001261,1.52622,1.37137
340,-0.000126,1.52622,1.38233
341,-0.0001259,1.52778,1.39173
342,-0.0001258,1.52467,1.40113
343,-0.0001257,1.52622,1.41209
344,-0.0001256,1.52622,1.42149
345,-0.0001255,1.52622,1.43246
346,-0.0001254,1.52933,1.44185
347,-0.0001253,1.52933,1.45282
348,-0.0001252,1.52778,1.46378
349,-0.0001251,1.52778,1.47005
350,-0.000125,1.52778,1.48415
351,-0.0001249,1.52778,1.49198
352,-0.0001248,1.52778,1.50294
353,-0.0001247,1.52778,1.51391
354,-0.0001246,1.52778,1.52174
355,-0.0001245,1.52933,1.53427
356,-0.0001244,1.52778,1.54523
357,-0.0001243,1.52778,1.5515
358,-0.0001242,1.52778,1.56403
359,-0.0001241,1.52778,1.57343
360,-0.000124,1.53089,1.58282
361,-0.0001239,1.52933,1.59222
362,-0.0001238,1.52933,1.60475
363,-0.0001237,1.52933,1.61258
364,-0.0001236,1.52933,1.62511
365,-0.0001235,1.52933,1.63451
366,-0.0001234,1.52933,1.64234
367,-0.0001233,1.52933,1.65174
368,-0.0001232,1.52933,1.65644
369,-0.0001231,1.52933,1.66271
370,-0.000123,1.52933,1.67054
371,-0.0001229,1.53089,1.67367
372,-0.0001228,1.52933,1.67837
373,-0.0001227,1.53089,1.68463
374,-0.0001226,1.52778,1.65957
375,-0.0001225,1.53089,1.58126
376,-0.0001224,1.53089,1.5562
377,-0.0001223,1.52933,1.5468
378,-0.0001222,1.53244,1.55776
379,-0.0001221,1.53089,1.57186
380,-0.000122,1.52933,1.58752
381,-0.0001219,1.52933,1.60162
382,-0.0001218,1.52933,1.61258
383,-0.0001217,1.52933,1.62198
384,-0.0001216,1.52933,1.62825
385,-0.0001215,1.53089,1.62825
386,-0.0001214,1.52778,1.62355
387,-0.0001213,1.52778,1.61885
388,-0.0001212,1.52933,1.61572
389,-0.0001211,1.52933,1.61102
390,-0.000121,1.52933,1.61258
391,-0.0001209,1.52778,1.61102
392,-0.0001208,1.53244,1.61258
393,-0.0001207,1.52933,1.61572
394,-0.0001206,1.52933,1.61885
395,-0.0001205,1.53089,1.61572
396,-0.0001204,1.52778,1.61728
397,-0.0001203,1.52933,1.61728
398,-0.0001202,1.52778,1.61572
399,-0.0001201,1.52933,1.61572
400,-0.00012,1.53244,1.61728
401,-0.0001199,1.53089,1.61728
402,-0.0001198,1.53089,1.61728
403,-0.0001197,1.52778,1.61728
404,-0.0001196,1.52933,1.61572
405,-0.0001195,1.53089,1.61572
406,-0.0001194,1.52778,1.61572
407,-0.0001193,1.52778,1.61728
408,-0.0001192,1.52933,1.61728
409,-0.0001191,1.53089,1.61572
410,-0.000119,1.53244,1.61572
411,-0.0001189,1.52933,1.61572
412,-0.0001188,1.53244,1.61572
413,-0.0001187,1.53089,1.61728
414,-0.0001186,1.52933,1.61728
415,-0.0001185,1.52933,1.61728
416,-0.0001184,1.53244,1.61728
417,-0.0001183,1.53089,1.61415
418,-0.0001182,1.53089,1.61728
419,-0.0001181,1.53089,1.61728
420,-0.000118,1.52933,1.61728
421,-0.0001179,1.53244,1.61728
422,-0.0001178,1.53244,1.61728
423,-0.0001177,1.53244,1.61885
424,-0.0001176,1.53399,1.61885
425,-0.0001175,1.53089,1.61885
426,-0.0001174,1.53399,1.61885
427,-0.0001173,1.53244,1.61885
428,-0.0001172,1.52933,1.61885
429,-0.0001171,1.53244,1.61885
430,-0.000117,1.52933,1.61885
431,-0.0001169,1.53244,1.61885
432,-0.0001168,1.53089,1.61885
433,-0.0001167,1.53089,1.61885
434,-0.0001166,1.53089,1.61885
435,-0.0001165,1.53399,1.61885
436,-0.0001164,1.53244,1.61885
437,-0.0001163,1.53244,1.61885
438,-0.0001162,1.53244,1.61885
439,-0.0001161,1.52933,1.61728
440,-0.000116,1.53244,1.61885
441,-0.0001159,1.53399,1.61885
442,-0.0001158,1.53244,1.61885
443,-0.0001157,1.53244,1.61885
444,-0.0001156,1.53244,1.61885
445,-0.0001155,1.53244,1.61885
446,-0.0001154,1.53555,1.61885
447,-0.0001153,1.53089,1.61885
448,-0.0001152,1.53089,1.61885
449,-0.0001151,1.53244,1.61885
450,-0.000115,1.53399,1.61728
451,-0.0001149,1.53244,1.61728
452,-0.0001148,1.53399,1.61728
453,-0.0001147,1.52933,1.61885
454,-0.0001146,1.53244,1.61885
455,-0.0001145,1.53244,1.61728
456,-0.0001144,1.53244,1.62042
457,-0.0001143,1.53089,1.61885
458,-0.0001142,1.53244,1.61885
459,-0.0001141,1.53244,1.61728
460,-0.000114,1.53244,1.62042
461,-0.0001139,1.53555,1.61728
462,-0.0001138,1.53399,1.61885
463,-0.0001137,1.53399,1.61728
464,-0.0001136,1.53244,1.61728
465,-0.0001135,1.53555,1.61728
466,-0.0001134,1.53244,1.61728
467,-0.0001133,1.53555,1.61728
468,-0.0001132,1.53244,1.61728
469,-0.0001131,1.53399,1.61728
470,-0.000113,1.53399,1.61728
471,-0.0001129,1.53244,1.61885
472,-0.0001128,1.53089,1.61885
473,-0.0001127,1.53399,1.61728
474,-0.0001126,1.53244,1.61728
475,-0.0001125,1.53244,1.61728
476,-0.0001124,1.53244,1.61728
477,-0.0001123,1.53244,1.61728
478,-0.0001122,1.53089,1.61728
479,-0.0001121,1.53399,1.61728
480,-0.000112,1.53399,1.61572
481,-0.0001119,1.53244,1.61572
482,-0.0001118,1.53555,1.61728
483,-0.0001117,1.53399,1.61728
484,-0.0001116,1.53244,1.61728
485,-0.0001115,1.53399,1.61728
486,-0.0001114,1.53244,1.61415
487,-0.0001113,1.53244,1.61728
488,-0.0001112,1.53555,1.61728
489,-0.0001111,1.53399,1.61728
490,-0.000111,1.53399,1.61728
491,-0.0001109,1.53399,1.61572
492,-0.0001108,1.53244,1.61728
493,-0.0001107,1.53244,1.61728
494,-0.0001106,1.53555,1.61885
495,-0.0001105,1.53244,1.61728
496,-0.0001104,1.53555,1.61728
497,-0.0001103,1.53399,1.61728
498,-0.0001102,1.53244,1.61728
499,-0.0001101,1.53555,1.61728
500,-0.00011,1.53399,1.61728
501,-0.0001099,1.5371,1.61728
502,-0.0001098,1.53555,1.61415
503,-0.0001097,1.53399,1.61885
504,-0.0001096,1.53555,1.61885
505,-0.0001095,1.53089,1.61885
506,-0.0001094,1.53399,1.61728
507,-0.0001093,1.53399,1.61728
508,-0.0001092,1.53555,1.61258
509,-0.0001091,1.53555,1.61572
510,-0.000109,1.53399,1.61728
511,-0.0001089,1.53399,1.61572
512,-0.0001088,1.53399,1.61572
513,-0.0001087,1.53244,1.61728
514,-0.0001086,1.53399,1.61572
515,-0.0001085,1.5371,1.61415
516,-0.0001084,1.53244,1.61728
517,-0.0001083,1.53555,1.61572
518,-0.0001082,1.53555,1.61572
519,-0.0001081,1.53399,1.61728
520,-0.000108,1.53399,1.61728
521,-0.0001079,1.53244,1.61728
522,-0.0001078,1.53555,1.61728
523,-0.0001077,1.53399,1.61728
524,-0.0001076,1.53555,1.61572
525,-0.0001075,1.53244,1.61572
526,-0.0001074,1.53555,1.61572
527,-0.0001073,1.53399,1.61572
528,-0.0001072,1.53555,1.61885
529,-0.0001071,1.53555,1.61572
530,-0.000107,1.53555,1.61572
531,-0.0001069,1.53555,1.61572
532,-0.0001068,1.53555,1.61572
533,-0.0001067,1.53555,1.61572
534,-0.0001066,1.53555,1.61572
535,-0.0001065,1.53555,1.61728
536,-0.0001064,1.53555,1.61728
537,-0.0001063,1.53244,1.61728
538,-0.0001062,1.53399,1.61728
539,-0.0001061,1.53555,1.61728
540,-0.000106,1.53244,1.61572
541,-0.0001059,1.53555,1.61572
542,-0.0001058,1.53244,1.61572
543,-0.0001057,1.53555,1.61572
544,-0.0001056,1.53399,1.61415
545,-0.0001055,1.53555,1.61415
546,-0.0001054,1.5371,1.61728
547,-0.0001053,1.53399,1.61415
548,-0.0001052,1.5371,1.61572
549,-0.0001051,1.53555,1.61572
550,-0.000105,1.53399,1.61728
551,-0.0001049,1.53399,1.61572
552,-0.0001048,1.53399,1.61572
553,-0.0001047,1.53555,1.61572
554,-0.0001046,1.53399,1.61572
555,-0.0001045,1.53555,1.61572
556,-0.0001044,1.53555,1.61572
557,-0.0001043,1.53555,1.61572
558,-0.0001042,1.53555,1.61572
559,-0.0001041,1.5371,1.61728
560,-0.000104,1.53399,1.61728
561,-0.0001039,1.53555,1.61728
562,-0.0001038,1.53555,1.61728
563,-0.0001037,1.53555,1.61728
564,-0.0001036,1.53399,1.61572
565,-0.0001035,1.5371,1.61728
566,-0.0001034,1.53866,1.61572
567,-0.0001033,1.53555,1.61572
568,-0.0001032,1.53555,1.61728
569,-0.0001031,1.53555,1.61728
570,-0.000103,1.53555,1.61728
571,-0.0001029,1.5371,1.61728
572,-0.0001028,1.53555,1.61572
573,-0.0001027,1.5371,1.61572
574,-0.0001026,1.53555,1.61572
575,-0.0001025,1.5371,1.61572
576,-0.0001024,1.5371,1.61572
577,-0.0001023,1.5371,1.61572
578,-0.0001022,1.5371,1.61728
579,-0.0001021,1.5371,1.61728
580,-0.000102,1.53866,1.61572
581,-0.0001019,1.53555,1.61572
582,-0.0001018,1.53555,1.61572
583,-0.0001017,1.5371,1.61572
584,-0.0001016,1.53555,1.61572
585,-0.0001015,1.53555,1.61572
586,-0.0001014,1.5371,1.61572
587,-0.0001013,1.5371,1.61572
588,-0.0001012,1.5371,1.61572
589,-0.0001011,1.53555,1.61572
590,-0.000101,1.53555,1.61572
591,-0.0001009,1.53555,1.61572
592,-0.0001008,1.53555,1.61572
593,-0.0001007,1.5371,1.61572
594,-0.0001006,1.53399,1.61572
595,-0.0001005,1.5371,1.61415
596,-0.0001004,1.53555,1.61572
597,-0.0001003,1.5371,1.61572
598,-0.0001002,1.53866,1.61572
599,-0.0001001,1.53555,1.61572
600,-0.0001,1.5371,1.61885
601,-9.99e-05,1.5371,1.61572
602,-9.98e-05,1.53555,1.61572
603,-9.97e-05,1.53399,1.61572
604,-9.96e-05,1.53555,1.61728
605,-9.95e-05,1.53866,1.61572
606,-9.94e-05,1.5371,1.61572
607,-9.93e-05,1.5371,1.61572
608,-9.92e-05,1.5371,1.61572
609,-9.91e-05,1.53555,1.61572
610,-9.9e-05,1.53866,1.61885
611,-9.89e-05,1.5371,1.61415
612,-9.88e-05,1.53555,1.61728
613,-9.87e-05,1.53866,1.61572
614,-9.86e-05,1.53866,1.61885
615,-9.85e-05,1.5371,1.61572
616,-9.84e-05,1.5371,1.61572
617,-9.83e-05,1.5371,1.61572
618,-9.82e-05,1.5371,1.61572
619,-9.81e-05,1.5371,1.61572
620,-9.8e-05,1.5371,1.61728
621,-9.79e-05,1.53555,1.61728
622,-9.78e-05,1.5371,1.61572
623,-9.77e-05,1.53866,1.61572
624,-9.76e-05,1.53555,1.61572
625,-9.75e-05,1.53866,1.61572
626,-9.74e-05,1.5371,1.61572
627,-9.73e-05,1.53555,1.61572
628,-9.72e-05,1.53866,1.61572
