TestData/Lab2.csv

;Scopy version,48fb6a9
;Exported on,Wednesday July 24/07/2019
;Device,M2K
;Nr of samples,8000
;Sample rate,1e+06
;Tool,Oscilloscope
;Additional Information,
Sample,Time(S),CH1(V),CH2(V),M1(V)
0,-0.004,-0.00360731,-0.0092402,0.00488281
1,-0.003999,0.0012716,-0.00432747,0.00488281
2,-0.003998,0.0045242,0.000585269,0.00390625
3,-0.003997,0.0110294,0.00713558,0.00390625
4,-0.003996,0.0175346,0.0120483,0.00488281
5,-0.003995,0.0224135,0.0185986,0.00390625
6,-0.003994,0.0321713,0.0251489,0.0078125
7,-0.003993,0.0370502,0.0316993,0.00488281
8,-0.003992,0.0419291,0.0382496,0.00390625
9,-0.003991,0.0451818,0.0398871,0.00488281
10,-0.00399,0.051687,0.048075,0.00390625
11,-0.003989,0.0581922,0.0546253,0.00390625
12,-0.003988,0.0646974,0.0611757,0.00390625
13,-0.003987,0.0712026,0.067726,0.00390625
14,-0.003986,0.0777078,0.0742763,0.00390625
15,-0.003985,0.0825867,0.0775514,0.00488281
16,-0.003984,0.0874656,0.0824642,0.00488281
17,-0.003983,0.0939708,0.0890145,0.00488281
18,-0.003982,0.100476,0.0955648,0.00488281
19,-0.003981,0.106981,0.102115,0.00390625
20,-0.00398,0.113486,0.108665,0.00390625
21,-0.003979,0.118365,0.113578,0.00390625
22,-0.003978,0.124871,0.118491,0.00683594
23,-0.003977,0.129749,0.123404,0.00683594
24,-0.003976,0.133002,0.129954,0.00390625
25,-0.003975,0.139507,0.136504,0.00390625
26,-0.003974,0.149265,0.143055,0.00683594
27,-0.003973,0.154144,0.149605,0.00390625
28,-0.003972,0.159023,0.154518,0.00390625
29,-0.003971,0.163902,0.161068,0.00292969
30,-0.00397,0.170407,0.167618,0.00292969
31,-0.003969,0.17366,0.170893,0.00292969
32,-0.003968,0.180165,0.177444,0.00292969
33,-0.003967,0.191549,0.183994,0.0078125
34,-0.003966,0.193175,0.190544,0.00292969
35,-0.003965,0.19968,0.193819,0.00683594
36,-0.003964,0.206186,0.20037,0.00488281
37,-0.003963,0.211065,0.205283,0.00488281
38,-0.003962,0.215943,0.21347,0.00292969
39,-0.003961,0.222449,0.216746,0.00488281
40,-0.00396,0.227328,0.223296,0.00390625
41,-0.003959,0.235459,0.229846,0.00488281
42,-0.003958,0.240338,0.236397,0.00390625
43,-0.003957,0.245217,0.238034,0.0078125
44,-0.003956,0.250096,0.246222,0.00390625
45,-0.003955,0.254975,0.249497,0.00488281
46,-0.003954,0.26148,0.256047,0.00488281
47,-0.003953,0.269611,0.262598,0.0078125
48,-0.003952,0.276117,0.269148,0.0078125
49,-0.003951,0.280996,0.275698,0.00488281
50,-0.00395,0.287501,0.280611,0.0078125
51,-0.003949,0.289127,0.285524,0.00390625
52,-0.003948,0.295632,0.290437,0.00488281
53,-0.003947,0.300511,0.295349,0.00488281
54,-0.003946,0.307016,0.3019,0.00488281
55,-0.003945,0.315148,0.30845,0.00683594
56,-0.003944,0.3184,0.313363,0.00488281
57,-0.003943,0.324906,0.318275,0.00683594
58,-0.003942,0.328158,0.323188,0.00488281
59,-0.003941,0.333037,0.328101,0.00488281
60,-0.00394,0.339542,0.334651,0.00488281
61,-0.003939,0.346048,0.341202,0.00390625
62,-0.003938,0.354179,0.347752,0.00683594
63,-0.003937,0.357432,0.351027,0.00683594
64,-0.003936,0.363937,0.357577,0.00683594
65,-0.003935,0.36719,0.360852,0.00683594
66,-0.003934,0.373695,0.365765,0.0078125
67,-0.003933,0.376947,0.372316,0.00390625
68,-0.003932,0.383453,0.378866,0.00390625
69,-0.003931,0.388331,0.385416,0.00292969
70,-0.00393,0.394837,0.390329,0.00390625
71,-0.003929,0.399716,0.393604,0.00683594
72,-0.003928,0.404594,0.398517,0.00683594
73,-0.003927,0.407847,0.405067,0.00292969
74,-0.003926,0.414352,0.408342,0.00683594
75,-0.003925,0.420857,0.41653,0.00390625
76,-0.003924,0.427363,0.421443,0.00683594
77,-0.003923,0.430615,0.426356,0.00390625
78,-0.003922,0.43712,0.431268,0.00488281
79,-0.003921,0.440373,0.436181,0.00390625
80,-0.00392,0.445252,0.441094,0.00390625
81,-0.003919,0.450131,0.444369,0.00488281
82,-0.003918,0.456636,0.450919,0.00488281
83,-0.003917,0.463141,0.45747,0.00488281
84,-0.003916,0.466394,0.462382,0.00390625
85,-0.003915,0.471273,0.467295,0.00390625
86,-0.003914,0.476152,0.472208,0.00390625
87,-0.003913,0.481031,0.475483,0.00488281
88,-0.003912,0.487536,0.482033,0.00488281
89,-0.003911,0.494041,0.488584,0.00488281
90,-0.00391,0.497294,0.491859,0.00488281
91,-0.003909,0.500546,0.496771,0.00390625
92,-0.003908,0.507051,0.501684,0.00488281
93,-0.003907,0.510304,0.504959,0.00488281
94,-0.003906,0.515183,0.51151,0.00390625
95,-0.003905,0.521688,0.51806,0.00390625
96,-0.003904,0.526567,0.521335,0.00488281
97,-0.003903,0.52982,0.526248,0.00390625
98,-0.003902,0.537951,0.529523,0.0078125
99,-0.003901,0.539578,0.534436,0.00488281
100,-0.0039,0.544456,0.540986,0.00390625
101,-0.003899,0.549335,0.544261,0.00488281
102,-0.003898,0.552588,0.549174,0.00390625
103,-0.003897,0.559093,0.555724,0.00390625
104,-0.003896,0.565598,0.560637,0.00488281
105,-0.003895,0.568851,0.563912,0.00488281
106,-0.003894,0.572104,0.568825,0.00390625
107,-0.003893,0.576982,0.5721,0.00390625
108,-0.003892,0.583488,0.577013,0.00683594
109,-0.003891,0.58674,0.581926,0.00390625
110,-0.00389,0.591619,0.585201,0.00683594
111,-0.003889,0.594872,0.590113,0.00390625
112,-0.003888,0.603003,0.595026,0.0078125
113,-0.003887,0.60463,0.599939,0.00390625
114,-0.003886,0.607882,0.603214,0.00390625
115,-0.003885,0.614387,0.608127,0.00683594
116,-0.003884,0.61764,0.614677,0.00390625
117,-0.003883,0.624145,0.616315,0.0078125
118,-0.003882,0.629024,0.622865,0.00683594
119,-0.003881,0.632277,0.62614,0.00683594
120,-0.00388,0.633903,0.629415,0.00390625
121,-0.003879,0.640408,0.63269,0.0078125
122,-0.003878,0.642035,0.639241,0.00292969
123,-0.003877,0.650166,0.644153,0.00683594
124,-0.003876,0.653419,0.647429,0.00683594
125,-0.003875,0.656671,0.652341,0.00390625
126,-0.003874,0.66155,0.658892,0.00292969
127,-0.003873,0.664803,0.657254,0.0078125
128,-0.003872,0.668055,0.663804,0.00390625
129,-0.003871,0.672934,0.66708,0.00488281
130,-0.00387,0.677813,0.67363,0.00390625
131,-0.003869,0.681066,0.676905,0.00390625
132,-0.003868,0.687571,0.681818,0.00488281
133,-0.003867,0.690824,0.685093,0.00488281
134,-0.003866,0.694076,0.688368,0.00488281
135,-0.003865,0.697329,0.691643,0.00488281
136,-0.003864,0.700581,0.693281,0.0078125
137,-0.003863,0.70546,0.699831,0.00488281
138,-0.003862,0.708713,0.703106,0.00488281
139,-0.003861,0.713592,0.708019,0.00488281
140,-0.00386,0.716844,0.711294,0.00488281
141,-0.003859,0.720097,0.714569,0.00488281
142,-0.003858,0.72335,0.716207,0.0078125
143,-0.003857,0.726602,0.722757,0.00390625
144,-0.003856,0.729855,0.724395,0.00488281
145,-0.003855,0.734734,0.729308,0.00488281
146,-0.003854,0.737986,0.73422,0.00390625
147,-0.003853,0.742865,0.737495,0.00488281
148,-0.003852,0.746118,0.739133,0.0078125
149,-0.003851,0.74937,0.742408,0.0078125
150,-0.00385,0.752623,0.745683,0.0078125
151,-0.003849,0.755876,0.750596,0.00488281
152,-0.003848,0.760755,0.757146,0.00390625
153,-0.003847,0.764007,0.758784,0.00488281
154,-0.003846,0.76726,0.763697,0.00390625
155,-0.003845,0.770512,0.763697,0.00683594
156,-0.003844,0.772139,0.768609,0.00390625
157,-0.003843,0.775391,0.770247,0.00488281
158,-0.003842,0.778644,0.773522,0.00488281
159,-0.003841,0.781897,0.778435,0.00390625
160,-0.00384,0.786775,0.780073,0.00683594
161,-0.003839,0.790028,0.784985,0.00488281
162,-0.003838,0.791654,0.78826,0.00390625
163,-0.003837,0.794907,0.78826,0.00683594
164,-0.003836,0.79816,0.791536,0.00683594
165,-0.003835,0.801412,0.794811,0.00683594
166,-0.003834,0.804665,0.801361,0.00390625
167,-0.003833,0.809544,0.804636,0.00488281
168,-0.003832,0.809544,0.806274,0.00390625
169,-0.003831,0.812796,0.806274,0.00683594
170,-0.00383,0.814423,0.809549,0.00390625
171,-0.003829,0.817675,0.814462,0.00390625
172,-0.003828,0.820928,0.817737,0.00390625
173,-0.003827,0.82418,0.821012,0.00390625
174,-0.003826,0.827433,0.824287,0.00390625
175,-0.003825,0.830686,0.824287,0.00683594
176,-0.003824,0.832312,0.827562,0.00390625
177,-0.003823,0.833938,0.830837,0.00390625
178,-0.003822,0.835564,0.832475,0.00390625
179,-0.003821,0.838817,0.837388,0.000976563
180,-0.00382,0.84207,0.837388,0.00390625
181,-0.003819,0.845322,0.8423,0.00390625
182,-0.003818,0.848575,0.843938,0.00390625
183,-0.003817,0.851828,0.845576,0.00683594
184,-0.003816,0.851828,0.847213,0.00390625
185,-0.003815,0.853454,0.848851,0.00390625
186,-0.003814,0.85508,0.852126,0.00390625
187,-0.003813,0.859959,0.855401,0.00390625
188,-0.003812,0.861585,0.858676,0.00292969
189,-0.003811,0.866464,0.860314,0.00683594
190,-0.00381,0.864838,0.861951,0.00292969
191,-0.003809,0.868091,0.865227,0.00292969
192,-0.003808,0.869717,0.863589,0.00683594
193,-0.003807,0.871343,0.868502,0.00292969
194,-0.003806,0.876222,0.870139,0.00683594
195,-0.003805,0.876222,0.871777,0.00390625
196,-0.003804,0.879475,0.875052,0.00390625
197,-0.003803,0.879475,0.875052,0.00390625
198,-0.003802,0.881101,0.878327,0.00292969
199,-0.003801,0.882727,0.879965,0.00292969
200,-0.0038,0.884354,0.879965,0.00390625
201,-0.003799,0.887606,0.884878,0.00292969
202,-0.003798,0.890859,0.884878,0.00683594
203,-0.003797,0.890859,0.886515,0.00390625
204,-0.003796,0.894111,0.888153,0.00683594
205,-0.003795,0.894111,0.88979,0.00390625
206,-0.003794,0.897364,0.891428,0.00683594
207,-0.003793,0.897364,0.893065,0.00390625
208,-0.003792,0.89899,0.896341,0.00292969
209,-0.003791,0.902243,0.896341,0.00683594
210,-0.00379,0.902243,0.896341,0.00683594
211,-0.003789,0.903869,0.899616,0.00390625
212,-0.003788,0.903869,0.899616,0.00390625
213,-0.003787,0.905495,0.901253,0.00390625
214,-0.003786,0.908748,0.902891,0.00488281
215,-0.003785,0.910374,0.904528,0.00488281
216,-0.003784,0.910374,0.906166,0.00390625
217,-0.003783,0.912001,0.906166,0.00488281
218,-0.003782,0.913627,0.909441,0.00390625
219,-0.003781,0.913627,0.907804,0.00488281
220,-0.00378,0.915253,0.911079,0.00390625
221,-0.003779,0.915253,0.911079,0.00390625
222,-0.003778,0.918506,0.911079,0.0078125
223,-0.003777,0.921758,0.915991,0.00488281
224,-0.003776,0.918506,0.914354,0.00390625
225,-0.003775,0.920132,0.915991,0.00390625
226,-0.003774,0.921758,0.915991,0.00488281
227,-0.003773,0.921758,0.915991,0.00488281
228,-0.003772,0.921758,0.915991,0.00488281
229,-0.003771,0.925011,0.920904,0.00390625
230,-0.00377,0.923385,0.919267,0.00390625
231,-0.003769,0.925011,0.919267,0.00488281
232,-0.003768,0.925011,0.919267,0.00488281
233,-0.003767,0.928264,0.924179,0.00390625
234,-0.003766,0.926637,0.922542,0.00390625
235,-0.003765,0.928264,0.922542,0.00488281
236,-0.003764,0.928264,0.922542,0.00488281
237,-0.003763,0.931516,0.925817,0.00488281
238,-0.003762,0.931516,0.927455,0.00390625
239,-0.003761,0.931516,0.927455,0.00390625
240,-0.00376,0.92989,0.925817,0.00390625
241,-0.003759,0.92989,0.925817,0.00390625
242,-0.003758,0.92989,0.925817,0.00390625
243,-0.003757,0.931516,0.925817,0.00488281
244,-0.003756,0.931516,0.929092,0.00292969
245,-0.003755,0.933143,0.927455,0.00488281
246,-0.003754,0.933143,0.929092,0.00390625
247,-0.003753,0.933143,0.927455,0.00488281
248,-0.003752,0.931516,0.927455,0.00390625
249,-0.003751,0.934769,0.93073,0.00390625
250,-0.00375,0.933143,0.929092,0.00390625
251,-0.003749,0.934769,0.929092,0.00488281
252,-0.003748,0.934769,0.93073,0.00390625
253,-0.003747,0.933143,0.93073,0.00292969
254,-0.003746,0.933143,0.927455,0.00488281
255,-0.003745,0.933143,0.929092,0.00390625
256,-0.003744,0.92989,0.925817,0.00390625
257,-0.003743,0.931516,0.929092,0.00292969
258,-0.003742,0.931516,0.927455,0.00390625
259,-0.003741,0.933143,0.929092,0.00390625
260,-0.00374,0.931516,0.925817,0.00488281
261,-0.003739,0.92989,0.924179,0.00488281
262,-0.003738,0.92989,0.925817,0.00390625
263,-0.003737,0.931516,0.925817,0.00488281
264,-0.003736,0.92989,0.925817,0.00390625
265,-0.003735,0.92989,0.924179,0.00488281
266,-0.003734,0.928264,0.925817,0.00292969
267,-0.003733,0.926637,0.922542,0.00390625
268,-0.003732,0.926637,0.920904,0.00488281
269,-0.003731,0.923385,0.919267,0.00390625
270,-0.00373,0.923385,0.919267,0.00390625
271,-0.003729,0.925011,0.920904,0.00390625
272,-0.003728,0.925011,0.922542,0.00292969
273,-0.003727,0.923385,0.917629,0.00488281
274,-0.003726,0.921758,0.915991,0.00488281
275,-0.003725,0.920132,0.917629,0.00292969
276,-0.003724,0.91688,0.914354,0.00292969
277,-0.003723,0.920132,0.914354,0.00488281
278,-0.003722,0.921758,0.914354,0.0078125
279,-0.003721,0.920132,0.914354,0.00488281
280,-0.00372,0.918506,0.914354,0.00390625
281,-0.003719,0.91688,0.911079,0.00488281
282,-0.003718,0.913627,0.907804,0.00488281
283,-0.003717,0.913627,0.907804,0.00488281
284,-0.003716,0.910374,0.906166,0.00390625
285,-0.003715,0.912001,0.906166,0.00488281
286,-0.003714,0.910374,0.906166,0.00390625
287,-0.003713,0.910374,0.906166,0.00390625
288,-0.003712,0.905495,0.902891,0.00292969
289,-0.003711,0.905495,0.899616,0.00683594
290,-0.00371,0.902243,0.896341,0.00683594
291,-0.003709,0.902243,0.896341,0.00683594
292,-0.003708,0.900617,0.897978,0.00292969
293,-0.003707,0.900617,0.897978,0.00292969
294,-0.003706,0.897364,0.894703,0.00292969
295,-0.003705,0.897364,0.891428,0.00683594
296,-0.003704,0.894111,0.888153,0.00683594
297,-0.003703,0.892485,0.891428,0.000976563
298,-0.003702,0.892485,0.886515,0.00683594
299,-0.003701,0.890859,0.886515,0.00390625
300,-0.0037,0.889232,0.884878,0.00390625
301,-0.003699,0.887606,0.881602,0.00683594
302,-0.003698,0.882727,0.878327,0.00390625
303,-0.003697,0.881101,0.878327,0.00292969
304,-0.003696,0.879475,0.875052,0.00390625
305,-0.003695,0.877848,0.875052,0.00292969
306,-0.003694,0.876222,0.873414,0.00292969
307,-0.003693,0.876222,0.870139,0.00683594
308,-0.003692,0.872969,0.866864,0.00683594
309,-0.003691,0.869717,0.866864,0.00292969
310,-0.00369,0.869717,0.863589,0.00683594
311,-0.003689,0.864838,0.861951,0.00292969
312,-0.003688,0.864838,0.860314,0.00390625
313,-0.003687,0.859959,0.857039,0.00292969
314,-0.003686,0.861585,0.857039,0.00390625
315,-0.003685,0.856706,0.853764,0.00390625
316,-0.003684,0.853454,0.850488,0.00390625
317,-0.003683,0.851828,0.848851,0.00390625
318,-0.003682,0.850201,0.847213,0.00390625
319,-0.003681,0.846949,0.8423,0.00390625
320,-0.00368,0.846949,0.8423,0.00390625
321,-0.003679,0.84207,0.840663,0.000976563
322,-0.003678,0.838817,0.837388,0.000976563
323,-0.003677,0.835564,0.834113,0.000976563
324,-0.003676,0.835564,0.827562,0.0078125
325,-0.003675,0.830686,0.825925,0.00390625
326,-0.003674,0.830686,0.825925,0.00390625
327,-0.003673,0.827433,0.82265,0.00390625
328,-0.003672,0.825807,0.821012,0.00390625
329,-0.003671,0.822554,0.817737,0.00390625
330,-0.00367,0.819301,0.814462,0.00390625
331,-0.003669,0.814423,0.811186,0.00390625
332,-0.003668,0.81117,0.806274,0.00488281
333,-0.003667,0.809544,0.806274,0.00390625
334,-0.003666,0.807917,0.804636,0.00390625
335,-0.003665,0.806291,0.799723,0.00683594
336,-0.003664,0.801412,0.798086,0.00390625
337,-0.003663,0.79816,0.793173,0.00488281
338,-0.003662,0.793281,0.789898,0.00390625
339,-0.003661,0.791654,0.78826,0.00390625
340,-0.00366,0.788402,0.784985,0.00390625
341,-0.003659,0.786775,0.78171,0.00488281
342,-0.003658,0.785149,0.78171,0.00390625
343,-0.003657,0.781897,0.77516,0.00683594
344,-0.003656,0.775391,0.773522,0.000976563
345,-0.003655,0.772139,0.766972,0.00488281
346,-0.003654,0.76726,0.763697,0.00390625
347,-0.003653,0.765634,0.760422,0.00488281
348,-0.003652,0.762381,0.760422,0.00292969
349,-0.003651,0.760755,0.755509,0.00488281
350,-0.00365,0.757502,0.752234,0.00488281
351,-0.003649,0.752623,0.748959,0.00390625
352,-0.003648,0.74937,0.744046,0.00488281
353,-0.003647,0.744492,0.740771,0.00390625
354,-0.003646,0.741239,0.735858,0.00488281
355,-0.003645,0.737986,0.732583,0.00488281
356,-0.003644,0.734734,0.732583,0.00292969
357,-0.003643,0.733107,0.72767,0.00488281
358,-0.003642,0.728229,0.72112,0.0078125
359,-0.003641,0.72335,0.717845,0.00488281
360,-0.00364,0.720097,0.714569,0.00488281
361,-0.003639,0.716844,0.711294,0.00488281
362,-0.003638,0.713592,0.708019,0.00488281
363,-0.003637,0.710339,0.704744,0.00488281
364,-0.003636,0.70546,0.701469,0.00390625
365,-0.003635,0.702208,0.696556,0.00488281
366,-0.003634,0.698955,0.693281,0.00488281
367,-0.003633,0.69245,0.688368,0.00390625
368,-0.003632,0.689197,0.685093,0.00390625
369,-0.003631,0.685945,0.681818,0.00390625
370,-0.00363,0.682692,0.676905,0.00488281
371,-0.003629,0.679439,0.67363,0.00488281
372,-0.003628,0.672934,0.668717,0.00390625
373,-0.003627,0.671308,0.665442,0.00683594
374,-0.003626,0.664803,0.660529,0.00390625
375,-0.003625,0.66155,0.657254,0.00390625
376,-0.003624,0.656671,0.652341,0.00390625
377,-0.003623,0.655045,0.649066,0.00683594
378,-0.003622,0.650166,0.645791,0.00390625
379,-0.003621,0.645287,0.640878,0.00390625
380,-0.00362,0.640408,0.635966,0.00390625
381,-0.003619,0.635529,0.631053,0.00390625
382,-0.003618,0.632277,0.62614,0.00683594
383,-0.003617,0.629024,0.624503,0.00390625
384,-0.003616,0.624145,0.617952,0.00683594
385,-0.003615,0.619266,0.614677,0.00390625
386,-0.003614,0.616014,0.611402,0.00390625
387,-0.003613,0.609509,0.603214,0.00683594
388,-0.003612,0.603003,0.599939,0.00390625
389,-0.003611,0.599751,0.595026,0.00390625
390,-0.00361,0.596498,0.591751,0.00390625
391,-0.003609,0.593246,0.588476,0.00390625
392,-0.003608,0.588367,0.583563,0.00390625
393,-0.003607,0.583488,0.57865,0.00390625
394,-0.003606,0.578609,0.573738,0.00390625
395,-0.003605,0.572104,0.567187,0.00488281
396,-0.003604,0.568851,0.563912,0.00488281
397,-0.003603,0.563972,0.560637,0.00390625
398,-0.003602,0.560719,0.555724,0.00488281
399,-0.003601,0.554214,0.552449,0.000976563
400,-0.0036,0.549335,0.545899,0.00390625
401,-0.003599,0.544456,0.539348,0.00488281
402,-0.003598,0.541204,0.536073,0.00488281
403,-0.003597,0.536325,0.532798,0.00390625
404,-0.003596,0.531446,0.526248,0.00488281
405,-0.003595,0.526567,0.522973,0.00390625
406,-0.003594,0.521688,0.51806,0.00390625
407,-0.003593,0.515183,0.513147,0.00292969
408,-0.003592,0.51193,0.504959,0.0078125
409,-0.003591,0.505425,0.503322,0.00292969
410,-0.00359,0.502173,0.496771,0.00488281
411,-0.003589,0.49892,0.493496,0.00488281
412,-0.003588,0.494041,0.490221,0.00390625
413,-0.003587,0.487536,0.480396,0.0078125
414,-0.003586,0.479404,0.477121,0.00292969
415,-0.003585,0.476152,0.472208,0.00390625
416,-0.003584,0.471273,0.468933,0.00292969
417,-0.003583,0.46802,0.462382,0.00488281
418,-0.003582,0.463141,0.460745,0.00292969
419,-0.003581,0.458262,0.454194,0.00390625
420,-0.00358,0.451757,0.447644,0.00390625
421,-0.003579,0.445252,0.441094,0.00390625
422,-0.003578,0.438747,0.434543,0.00390625
423,-0.003577,0.435494,0.431268,0.00390625
424,-0.003576,0.430615,0.426356,0.00390625
425,-0.003575,0.425736,0.42308,0.00292969
426,-0.003574,0.422484,0.418168,0.00390625
427,-0.003573,0.415979,0.411617,0.00390625
428,-0.003572,0.409473,0.405067,0.00390625
429,-0.003571,0.401342,0.398517,0.00292969
430,-0.00357,0.398089,0.391966,0.00683594
431,-0.003569,0.394837,0.388691,0.00683594
432,-0.003568,0.391584,0.387054,0.00390625
433,-0.003567,0.385079,0.378866,0.00683594
434,-0.003566,0.378574,0.375591,0.00390625
435,-0.003565,0.372068,0.367403,0.00390625
436,-0.003564,0.363937,0.360852,0.00390625
437,-0.003563,0.359058,0.354302,0.00390625
438,-0.003562,0.355805,0.351027,0.00390625
439,-0.003561,0.352553,0.347752,0.00390625
440,-0.00356,0.346048,0.339564,0.00683594
441,-0.003559,0.339542,0.336289,0.00390625
442,-0.003558,0.333037,0.329738,0.00390625
443,-0.003557,0.326532,0.324826,0.000976563
444,-0.003556,0.323279,0.318275,0.00488281
445,-0.003555,0.3184,0.313363,0.00488281
446,-0.003554,0.315148,0.310088,0.00488281
447,-0.003553,0.307016,0.303537,0.00390625
448,-0.003552,0.300511,0.296987,0.00390625
449,-0.003551,0.294006,0.290437,0.00390625
450,-0.00355,0.290753,0.285524,0.00488281
451,-0.003549,0.284248,0.278974,0.00488281
452,-0.003548,0.279369,0.274061,0.00488281
453,-0.003547,0.272864,0.270786,0.00292969
454,-0.003546,0.267985,0.264235,0.00390625
455,-0.003545,0.26148,0.256047,0.00488281
456,-0.003544,0.256601,0.252772,0.00390625
457,-0.003543,0.250096,0.246222,0.00390625
458,-0.003542,0.245217,0.241309,0.00390625
459,-0.003541,0.238712,0.234759,0.00390625
460,-0.00354,0.233833,0.231484,0.00292969
461,-0.003539,0.228954,0.223296,0.00488281
462,-0.003538,0.222449,0.216746,0.00488281
463,-0.003537,0.215943,0.211833,0.00390625
464,-0.003536,0.209438,0.205283,0.00390625
